…
Let's get some lyrics!

``` r
bp_song <- genius_lyrics(artist = "Kendrick Lamar", song = "Black Panther")

bp_song %>% 
  mutate(line = row_number())
```

    ## # A tibble: 40 x 2
    ##    text                                                              line
    ##    <chr>                                                            <int>
    ##  1 Wait                                                                 1
    ##  2 King of my city, king of my country, king of my homeland             2
    ##  3 King of the filthy, king of the fallen, we living again              3
    ##  4 King of the shooters, looters, boosters, and ghettos poppin'         4
    ##  5 King of the past, present, future, my ancestors watching             5
    ##  6 King of the culture, king of the soldiers, king of the bloodshed     6
    ##  7 King of the wisdom, king of the ocean, king of the respect           7
    ##  8 "King of the "                                                       8
    ##  9 opps that miss it                                                    9
    ## 10 " and dreamers that go and get it"                                  10
    ## # ... with 30 more rows
…
